{
   "data":[
      {
         "search":"universidad nacional de trujillo unitru",
         "id":16,
         "slug":"universidad-nacional-de-trujillo-unitru",
         "name":"UNIVERSIDAD NACIONAL DE TRUJILLO - UNITRU"
      },
      {
         "search":"iste trujillo",
         "id":287,
         "slug":"iste-trujillo",
         "name":"ISTE TRUJILLO"
      },
      {
         "search":"universidad catolica de trujillo benedicto xvi utc",
         "id":370,
         "slug":"universidad-catolica-de-trujillo-benedicto-xvi-utc",
         "name":"UNIVERSIDAD CAT\u00d3LICA DE TRUJILLO BENEDICTO XVI - UTC"
      },
      {
         "search":"universidad privada de trujillo uptp",
         "id":371,
         "slug":"universidad-privada-de-trujillo-uptp",
         "name":"UNIVERSIDAD PRIVADA DE TRUJILLO - UPTP "
      },
      {
         "search":"universidad alas peruanas uap",
         "id":14,
         "slug":"universidad-alas-peruanas-uap",
         "name":"UNIVERSIDAD ALAS PERUANAS - UAP"
      },
      {
         "search":"universidad peruana de ciencias aplicadas upc",
         "id":28,
         "slug":"universidad-peruana-de-ciencias-aplicadas-upc",
         "name":"UNIVERSIDAD PERUANA DE CIENCIAS APLICADAS - UPC"
      },
      {
         "search":"universidad peruana cayetano heredia upch",
         "id":53,
         "slug":"universidad-peruana-cayetano-heredia-upch",
         "name":"UNIVERSIDAD PERUANA CAYETANO HEREDIA - UPCH"
      },
      {
         "search":"universidad peruana los andes upla",
         "id":56,
         "slug":"universidad-peruana-los-andes-upla",
         "name":"UNIVERSIDAD PERUANA LOS ANDES - UPLA"
      },
      {
         "search":"universidad peruana de las americas",
         "id":82,
         "slug":"universidad-peruana-de-las-americas",
         "name":"UNIVERSIDAD PERUANA DE LAS AM\u00c9RICAS"
      },
      {
         "search":"universidad peruana union upeu",
         "id":93,
         "slug":"universidad-peruana-union-upeu",
         "name":"UNIVERSIDAD PERUANA UNI\u00d3N - UPEU"
      },
      {
         "search":"universidad nacional de la amazonia peruana unap",
         "id":99,
         "slug":"universidad-nacional-de-la-amazonia-peruana-unap",
         "name":"UNIVERSIDAD NACIONAL DE LA AMAZONIA PERUANA - UNAP"
      },
      {
         "search":"instituto alas peruana",
         "id":105,
         "slug":"instituto-alas-peruana",
         "name":"INSTITUTO ALAS PERUANA"
      },
      {
         "search":"universidad peruana simon bolivar usb",
         "id":178,
         "slug":"universidad-peruana-simon-bolivar-usb",
         "name":"UNIVERSIDAD PERUANA SIMON BOL\u00cdVAR - USB"
      },
      {
         "search":"universidad peruana de ciencias e informatica upci",
         "id":195,
         "slug":"universidad-peruana-de-ciencias-e-informatica-upci",
         "name":"UNIVERSIDAD PERUANA DE CIENCIAS E INFORM\u00c1TICA - UPCI"
      },
      {
         "search":"escuela nacional de capacitacion cruz roja peruana",
         "id":278,
         "slug":"escuela-nacional-de-capacitacion-cruz-roja-peruana",
         "name":"ESCUELA NACIONAL DE CAPACITACI\u00d3N - CRUZ ROJA PERUANA"
      },
      {
         "search":"universidad peruana de integracion global upig",
         "id":326,
         "slug":"universidad-peruana-de-integracion-global-upig",
         "name":"UNIVERSIDAD PERUANA DE INTEGRACI\u00d3N GLOBAL - UPIG"
      },
      {
         "search":"asociacion peruana de corredores de seguros apecose",
         "id":327,
         "slug":"asociacion-peruana-de-corredores-de-seguros-apecose",
         "name":"ASOCIACION PERUANA DE CORREDORES DE SEGUROS - APECOSE"
      },
      {
         "search":"universidad peruana de arte orval",
         "id":330,
         "slug":"universidad-peruana-de-arte-orval",
         "name":"UNIVERSIDAD PERUANA DE ARTE ORVAL"
      },
      {
         "search":"universidad de lima ulima",
         "id":4,
         "slug":"universidad-de-lima-ulima",
         "name":"UNIVERSIDAD DE LIMA - ULIMA"
      },
      {
         "search":"universidad ricardo palma urp",
         "id":5,
         "slug":"universidad-ricardo-palma-urp",
         "name":"UNIVERSIDAD RICARDO PALMA - URP"
      },
      {
         "search":"universidad nacional mayor de san marcos unmsm",
         "id":6,
         "slug":"universidad-nacional-mayor-de-san-marcos-unmsm",
         "name":"UNIVERSIDAD NACIONAL MAYOR DE SAN MARCOS - UNMSM"
      },
      {
         "search":"universidad inca garcilaso de la vega uigv",
         "id":8,
         "slug":"universidad-inca-garcilaso-de-la-vega-uigv",
         "name":"UNIVERSIDAD INCA GARCILASO DE LA VEGA - UIGV"
      },
      {
         "search":"universidad nacional del callao unac",
         "id":9,
         "slug":"universidad-nacional-del-callao-unac",
         "name":"UNIVERSIDAD NACIONAL DEL CALLAO - UNAC"
      },
      {
         "search":"universidad nacional federico villarreal unfv",
         "id":10,
         "slug":"universidad-nacional-federico-villarreal-unfv",
         "name":"UNIVERSIDAD NACIONAL FEDERICO VILLARREAL - UNFV"
      },
      {
         "search":"universidad nacional de san agustin unsa",
         "id":26,
         "slug":"universidad-nacional-de-san-agustin-unsa",
         "name":"UNIVERSIDAD NACIONAL DE SAN AGUST\u00cdN - UNSA"
      },
      {
         "search":"universidad nacional de san antonio abad del cusco unsaac",
         "id":89,
         "slug":"universidad-nacional-de-san-antonio-abad-del-cusco-unsaac",
         "name":"UNIVERSIDAD NACIONAL DE SAN ANTONIO ABAD DEL CUSCO - UNSAAC"
      },
      {
         "search":"instituto de informatica de la unsa infounsa",
         "id":212,
         "slug":"instituto-de-informatica-de-la-unsa-infounsa",
         "name":"INSTITUTO DE INFORMATICA DE LA UNSA - INFOUNSA"
      },
      {
         "search":"centro de idiomas unsa",
         "id":333,
         "slug":"centro-de-idiomas-unsa",
         "name":"CENTRO DE IDIOMAS UNSA "
      },
      {
         "search":"universidad nacional de ingenieria uni",
         "id":11,
         "slug":"universidad-nacional-de-ingenieria-uni",
         "name":"UNIVERSIDAD NACIONAL DE INGENIER\u00cdA - UNI"
      },
      {
         "search":"universidad san ignacio de loyola usil",
         "id":18,
         "slug":"universidad-san-ignacio-de-loyola-usil",
         "name":"UNIVERSIDAD SAN IGNACIO DE LOYOLA - USIL"
      },
      {
         "search":"universidad nacional de piura unp",
         "id":19,
         "slug":"universidad-nacional-de-piura-unp",
         "name":"UNIVERSIDAD  NACIONAL DE PIURA - UNP"
      },
      {
         "search":"universidad cesar vallejo ucv",
         "id":21,
         "slug":"universidad-cesar-vallejo-ucv",
         "name":"UNIVERSIDAD CESAR VALLEJO - UCV"
      },
      {
         "search":"universidad continental de ciencias e ingenieria ucci",
         "id":118,
         "slug":"universidad-continental-de-ciencias-e-ingenieria-ucci",
         "name":"UNIVERSIDAD CONTINENTAL DE CIENCIAS E INGENIER\u00cdA - UCCI"
      },
      {
         "search":"instituto continental",
         "id":147,
         "slug":"instituto-continental",
         "name":"INSTITUTO CONTINENTAL"
      },
      {
         "search":"continental asesores internacionales",
         "id":206,
         "slug":"continental-asesores-internacionales",
         "name":"CONTINENTAL ASESORES INTERNACIONALES"
      },
      {
         "search":"universidad esan",
         "id":23,
         "slug":"universidad-esan",
         "name":"UNIVERSIDAD ESAN"
      },
      {
         "search":"universidad catolica los angeles de chimbote uladech",
         "id":95,
         "slug":"universidad-catolica-los-angeles-de-chimbote-uladech",
         "name":"UNIVERSIDAD CAT\u00d3LICA LOS ANGELES DE CHIMBOTE - ULADECH"
      },
      {
         "search":"universidad marcelino champagnat umch",
         "id":186,
         "slug":"universidad-marcelino-champagnat-umch",
         "name":"UNIVERSIDAD MARCELINO CHAMPAGNAT - UMCH"
      },
      {
         "search":"escuela de interpretacion y traduccion esit",
         "id":324,
         "slug":"escuela-de-interpretacion-y-traduccion-esit",
         "name":"ESCUELA DE INTERPRETACI\u00d3N Y TRADUCCI\u00d3N - ESIT"
      },
      {
         "search":"escuela superior de telecomunicaciones esutel",
         "id":321,
         "slug":"escuela-superior-de-telecomunicaciones-esutel",
         "name":"ESCUELA SUPERIOR DE TELECOMUNICACIONES - ESUTEL"
      },
      {
         "search":"universidad de piura udep",
         "id":25,
         "slug":"universidad-de-piura-udep",
         "name":"UNIVERSIDAD DE PIURA - UDEP"
      },
      {
         "search":"pad universidad de piura",
         "id":281,
         "slug":"pad-universidad-de-piura",
         "name":"PAD - UNIVERSIDAD DE PIURA"
      },
      {
         "search":"instituto san isidro de piura",
         "id":336,
         "slug":"instituto-san-isidro-de-piura",
         "name":"INSTITUTO SAN ISIDRO DE PIURA"
      },
      {
         "search":"escuela tecnologica superior etsunp universidad nacional de piura",
         "id":364,
         "slug":"escuela-tecnologica-superior-etsunp-universidad-nacional-de-piura",
         "name":"ESCUELA TECNOL\u00d3GICA SUPERIOR ETSUNP - UNIVERSIDAD NACIONAL DE PIURA"
      },
      {
         "search":"universidad privada telesup",
         "id":64,
         "slug":"universidad-privada-telesup",
         "name":"UNIVERSIDAD PRIVADA TELESUP"
      },
      {
         "search":"escuela tecnologica superior ets universidad de piura",
         "id":365,
         "slug":"escuela-tecnologica-superior-ets-universidad-de-piura",
         "name":"ESCUELA TECNOL\u00d3GICA SUPERIOR ETS - UNIVERSIDAD DE PIURA"
      },
      {
         "search":"came escuela de direccion intermedia universidad de piura",
         "id":366,
         "slug":"came-escuela-de-direccion-intermedia-universidad-de-piura",
         "name":"CAME ESCUELA DE DIRECCI\u00d3N INTERMEDIA - UNIVERSIDAD DE PIURA"
      },
      {
         "search":"istp almirante miguel grau piura",
         "id":367,
         "slug":"istp-almirante-miguel-grau-piura",
         "name":"I.S.T.P. ALMIRANTE MIGUEL GRAU - PIURA"
      },
      {
         "search":"universidad nacional agraria la molina la molina",
         "id":29,
         "slug":"universidad-nacional-agraria-la-molina-la-molina",
         "name":"UNIVERSIDAD NACIONAL AGRARIA LA MOLINA - LA MOLINA"
      },
      {
         "search":"universidad nacional pedro ruiz gallo unprg",
         "id":30,
         "slug":"universidad-nacional-pedro-ruiz-gallo-unprg",
         "name":"UNIVERSIDAD NACIONAL PEDRO RUIZ GALLO - UNPRG"
      },
      {
         "search":"universidad tecnologica del peru utp",
         "id":31,
         "slug":"universidad-tecnologica-del-peru-utp",
         "name":"UNIVERSIDAD TECNOL\u00d3GICA DEL PER\u00da - UTP"
      },
      {
         "search":"universidad privada antenor orrego upao",
         "id":32,
         "slug":"universidad-privada-antenor-orrego-upao",
         "name":"UNIVERSIDAD PRIVADA ANTENOR ORREGO - UPAO"
      },
      {
         "search":"universidad privada antonio guillermo urrelo upagu",
         "id":211,
         "slug":"universidad-privada-antonio-guillermo-urrelo-upagu",
         "name":"UNIVERSIDAD PRIVADA ANTONIO GUILLERMO URRELO - UPAGU"
      },
      {
         "search":"universidad privada del norte unp",
         "id":35,
         "slug":"universidad-privada-del-norte-unp",
         "name":"UNIVERSIDAD PRIVADA DEL NORTE - UNP"
      },
      {
         "search":"instituto superior tecnologico privado pacifico norte",
         "id":331,
         "slug":"instituto-superior-tecnologico-privado-pacifico-norte",
         "name":"INSTITUTO SUPERIOR TECNOL\u00d3GICO PRIVADO PAC\u00cdFICO NORTE"
      },
      {
         "search":"universidad del pacifico up",
         "id":40,
         "slug":"universidad-del-pacifico-up",
         "name":"UNIVERSIDAD DEL PACIFICO - UP"
      },
      {
         "search":"instituto peruano de accion empresarial ipae",
         "id":13,
         "slug":"instituto-peruano-de-accion-empresarial-ipae",
         "name":"INSTITUTO PERUANO DE ACCI\u00d3N EMPRESARIAL - IPAE"
      },
      {
         "search":"instituto cesca",
         "id":17,
         "slug":"instituto-cesca",
         "name":"INSTITUTO CESCA"
      },
      {
         "search":"instituto sise",
         "id":27,
         "slug":"instituto-sise",
         "name":"INSTITUTO SISE"
      },
      {
         "search":"instituto de formacion bancaria ifb",
         "id":33,
         "slug":"instituto-de-formacion-bancaria-ifb",
         "name":"INSTITUTO DE FORMACI\u00d3N BANCARIA - IFB"
      },
      {
         "search":"instituto orson welles",
         "id":279,
         "slug":"instituto-orson-welles",
         "name":"INSTITUTO ORSON WELLES"
      },
      {
         "search":"instituto san ignacio de loyola isil",
         "id":36,
         "slug":"instituto-san-ignacio-de-loyola-isil",
         "name":"INSTITUTO SAN IGNACIO DE LOYOLA - ISIL"
      },
      {
         "search":"instituto eiger escuela internacional de gerencia",
         "id":38,
         "slug":"instituto-eiger-escuela-internacional-de-gerencia",
         "name":"INSTITUTO EIGER - ESCUELA INTERNACIONAL DE GERENCIA"
      },
      {
         "search":"instituto abaco",
         "id":39,
         "slug":"instituto-abaco",
         "name":"INSTITUTO ABACO"
      },
      {
         "search":"instituto de comercio exterior adex",
         "id":42,
         "slug":"instituto-de-comercio-exterior-adex",
         "name":"INSTITUTO DE COMERCIO EXTERIOR - ADEX"
      },
      {
         "search":"instituto cimas",
         "id":44,
         "slug":"instituto-cimas",
         "name":"INSTITUTO CIMAS"
      },
      {
         "search":"instituto computronic",
         "id":48,
         "slug":"instituto-computronic",
         "name":"INSTITUTO COMPUTRONIC"
      },
      {
         "search":"instituto cepea",
         "id":49,
         "slug":"instituto-cepea",
         "name":"INSTITUTO CEPEA"
      },
      {
         "search":"instituto cecitel",
         "id":50,
         "slug":"instituto-cecitel",
         "name":"INSTITUTO CECITEL"
      },
      {
         "search":"instituto de la clinica ricardo palma",
         "id":52,
         "slug":"instituto-de-la-clinica-ricardo-palma",
         "name":"INSTITUTO DE LA CL\u00cdNICA RICARDO PALMA"
      },
      {
         "search":"instituto peruano de marketing ipm",
         "id":58,
         "slug":"instituto-peruano-de-marketing-ipm",
         "name":"INSTITUTO PERUANO DE MARKETING - IPM"
      },
      {
         "search":"instituto peruano de publicidad ipp",
         "id":60,
         "slug":"instituto-peruano-de-publicidad-ipp",
         "name":"INSTITUTO PERUANO DE PUBLICIDAD - IPP"
      },
      {
         "search":"instituto ela",
         "id":61,
         "slug":"instituto-ela",
         "name":"INSTITUTO ELA"
      },
      {
         "search":"instituto telesup",
         "id":65,
         "slug":"instituto-telesup",
         "name":"INSTITUTO TELESUP"
      },
      {
         "search":"instituto toulouse lautrec",
         "id":67,
         "slug":"instituto-toulouse-lautrec",
         "name":"INSTITUTO TOULOUSE LAUTREC"
      },
      {
         "search":"instituto del sur",
         "id":75,
         "slug":"instituto-del-sur",
         "name":"INSTITUTO DEL SUR"
      },
      {
         "search":"escuela de administracion de negocios para graduados esan",
         "id":24,
         "slug":"escuela-de-administracion-de-negocios-para-graduados-esan",
         "name":"ESCUELA DE  ADMINISTRACION DE NEGOCIOS PARA GRADUADOS - ESAN"
      },
      {
         "search":"escuela de comercio exterior adex",
         "id":43,
         "slug":"escuela-de-comercio-exterior-adex",
         "name":"ESCUELA DE COMERCIO EXTERIOR - ADEX"
      },
      {
         "search":"escuela superior de informatica de la empresa informatica iicer",
         "id":109,
         "slug":"escuela-superior-de-informatica-de-la-empresa-informatica-iicer",
         "name":"ESCUELA SUPERIOR DE INFORM\u00c1TICA DE LA EMPRESA INFORM\u00c1TICA - IICER"
      },
      {
         "search":"escuela superior de periodismo jaime bausate y meza",
         "id":124,
         "slug":"escuela-superior-de-periodismo-jaime-bausate-y-meza",
         "name":"ESCUELA SUPERIOR DE PERIODISMO JAIME BAUSATE Y MEZA"
      },
      {
         "search":"universidad de lima ulima",
         "id":4,
         "slug":"universidad-de-lima-ulima",
         "name":"UNIVERSIDAD DE LIMA - ULIMA"
      },
      {
         "search":"colegio de abogados de lima",
         "id":123,
         "slug":"colegio-de-abogados-de-lima",
         "name":"COLEGIO DE ABOGADOS DE LIMA"
      },
      {
         "search":"escuela de empresa de lima",
         "id":126,
         "slug":"escuela-de-empresa-de-lima",
         "name":"ESCUELA DE EMPRESA DE LIMA"
      },
      {
         "search":"museo de arte de lima",
         "id":166,
         "slug":"museo-de-arte-de-lima",
         "name":"MUSEO DE ARTE DE LIMA"
      },
      {
         "search":"instituto superior tecnologico de lima insttel",
         "id":210,
         "slug":"instituto-superior-tecnologico-de-lima-insttel",
         "name":"INSTITUTO SUPERIOR TECNOL\u00d3GICO DE LIMA - INSTTEL"
      },
      {
         "search":"ftpcl facultad de teologia pontificia y civil de lima",
         "id":289,
         "slug":"ftpcl-facultad-de-teologia-pontificia-y-civil-de-lima",
         "name":"FTPCL - FACULTAD DE TEOLOG\u00cdA PONTIFICIA Y CIVIL DE LIMA"
      },
      {
         "search":"escuela de pilotos aviacion comercial y gastronomia professional air",
         "id":127,
         "slug":"escuela-de-pilotos-aviacion-comercial-y-gastronomia-professional-air",
         "name":"ESCUELA DE PILOTOS, AVIACI\u00d3N COMERCIAL Y GASTRONOM\u00cdA - PROFESSIONAL AIR"
      },
      {
         "search":"senati",
         "id":3,
         "slug":"senati",
         "name":"SENATI"
      },
      {
         "search":"sencico",
         "id":47,
         "slug":"sencico",
         "name":"SENCICO"
      },
      {
         "search":"escuela nacional de aduanas",
         "id":168,
         "slug":"escuela-nacional-de-aduanas",
         "name":"ESCUELA NACIONAL DE ADUANAS"
      },
      {
         "search":"escuela nacional de archiveros",
         "id":176,
         "slug":"escuela-nacional-de-archiveros",
         "name":"ESCUELA NACIONAL DE ARCHIVEROS"
      },
      {
         "search":"escuela de arte negocio y tecnologia esantec",
         "id":181,
         "slug":"escuela-de-arte-negocio-y-tecnologia-esantec",
         "name":"ESCUELA DE ARTE, NEGOCIO Y TECNOLOG\u00cdA - ESANTEC"
      },
      {
         "search":"escuela europea de negocios",
         "id":400,
         "slug":"escuela-europea-de-negocios",
         "name":"ESCUELA EUROPEA DE NEGOCIOS"
      },
      {
         "search":"escuela nacional de artes graficas",
         "id":251,
         "slug":"escuela-nacional-de-artes-graficas",
         "name":"ESCUELA NACIONAL DE ARTES GR\u00c1FICAS"
      },
      {
         "search":"escuela de gastronomia turismo y hoteleria santa angela",
         "id":269,
         "slug":"escuela-de-gastronomia-turismo-y-hoteleria-santa-angela",
         "name":"ESCUELA DE GASTRONOM\u00cdA, TURISMO Y HOTELER\u00cdA SANTA ANGELA"
      },
      {
         "search":"universidad andina del cusco uac",
         "id":78,
         "slug":"universidad-andina-del-cusco-uac",
         "name":"UNIVERSIDAD ANDINA DEL CUSCO - UAC"
      },
      {
         "search":"universidad andina nestor caceres velasquez uancv",
         "id":154,
         "slug":"universidad-andina-nestor-caceres-velasquez-uancv",
         "name":"UNIVERSIDAD ANDINA N\u00c9STOR C\u00c1CERES VEL\u00c1SQUEZ - UANCV"
      },
      {
         "search":"universidad andina simon bolivar",
         "id":334,
         "slug":"universidad-andina-simon-bolivar",
         "name":"UNIVERSIDAD ANDINA SIM\u00d3N BOL\u00cdVAR"
      },
      {
         "search":"escuela nacional de marina mercante enamm",
         "id":302,
         "slug":"escuela-nacional-de-marina-mercante-enamm",
         "name":"ESCUELA NACIONAL DE MARINA MERCANTE - ENAMM"
      },
      {
         "search":"escuela naval del peru",
         "id":303,
         "slug":"escuela-naval-del-peru",
         "name":"ESCUELA NAVAL DEL PER\u00da"
      },
      {
         "search":"escuela de capacitacion y perfeccionamiento de la fap escap",
         "id":306,
         "slug":"escuela-de-capacitacion-y-perfeccionamiento-de-la-fap-escap",
         "name":"ESCUELA DE CAPACITACI\u00d3N Y PERFECCIONAMIENTO DE LA FAP - ESCAP"
      },
      {
         "search":"escuela de oficiales de la fap eofap",
         "id":307,
         "slug":"escuela-de-oficiales-de-la-fap-eofap",
         "name":"ESCUELA DE OFICIALES DE LA FAP - EOFAP"
      },
      {
         "search":"escuela de suboficiales esofa fap",
         "id":308,
         "slug":"escuela-de-suboficiales-esofa-fap",
         "name":"ESCUELA DE SUBOFICIALES ESOFA - FAP"
      },
      {
         "search":"escuela militar de chorrillos emch",
         "id":309,
         "slug":"escuela-militar-de-chorrillos-emch",
         "name":"ESCUELA MILITAR DE CHORRILLOS - EMCH"
      },
      {
         "search":"escuela tecnica del ejercito",
         "id":310,
         "slug":"escuela-tecnica-del-ejercito",
         "name":"ESCUELA T\u00c9CNICA DEL EJ\u00c9RCITO"
      },
      {
         "search":"escuela de arte digital",
         "id":316,
         "slug":"escuela-de-arte-digital",
         "name":"ESCUELA DE ARTE DIGITAL"
      },
      {
         "search":"escuela de hoteleria y turismo sky master",
         "id":317,
         "slug":"escuela-de-hoteleria-y-turismo-sky-master",
         "name":"ESCUELA DE HOTELER\u00cdA Y TURISMO - SKY MASTER"
      },
      {
         "search":"alianza francesa",
         "id":201,
         "slug":"alianza-francesa",
         "name":"ALIANZA FRANCESA"
      },
      {
         "search":"escuelas americanas",
         "id":167,
         "slug":"escuelas-americanas",
         "name":"ESCUELAS AMERICANAS"
      },
      {
         "search":"universidad femenina del sagrado corazon unife",
         "id":66,
         "slug":"universidad-femenina-del-sagrado-corazon-unife",
         "name":"UNIVERSIDAD FEMENINA DEL SAGRADO CORAZ\u00d3N - UNIFE"
      },
      {
         "search":"instituto american studios",
         "id":266,
         "slug":"instituto-american-studios",
         "name":"INSTITUTO AMERICAN STUDIOS"
      },
      {
         "search":"instituto inteci",
         "id":80,
         "slug":"instituto-inteci",
         "name":"INSTITUTO INTECI"
      },
      {
         "search":"instituto de educacion superior tecnologico privado american institute",
         "id":283,
         "slug":"instituto-de-educacion-superior-tecnologico-privado-american-institute",
         "name":"INSTITUTO DE EDUCACI\u00d3N SUPERIOR TECNOL\u00d3GICO PRIVADO AMERICAN INSTITUTE"
      },
      {
         "search":"instituto tecnologico betatech",
         "id":285,
         "slug":"instituto-tecnologico-betatech",
         "name":"INSTITUTO TECNOL\u00d3GICO BETATECH"
      },
      {
         "search":"instituto americano",
         "id":294,
         "slug":"instituto-americano",
         "name":"INSTITUTO AMERICANO"
      },
      {
         "search":"instituto idat",
         "id":15,
         "slug":"instituto-idat",
         "name":"INSTITUTO IDAT"
      },
      {
         "search":"universidad nacional daniel alcides carrion undac",
         "id":84,
         "slug":"universidad-nacional-daniel-alcides-carrion-undac",
         "name":"UNIVERSIDAD NACIONAL DANIEL ALCIDES CARRI\u00d3N - UNDAC"
      },
      {
         "search":"instituto daniel alcides carrion",
         "id":85,
         "slug":"instituto-daniel-alcides-carrion",
         "name":"INSTITUTO DANIEL ALCIDES CARRI\u00d3N"
      },
      {
         "search":"instituto teccen",
         "id":235,
         "slug":"instituto-teccen",
         "name":"INSTITUTO TECCEN"
      },
      {
         "search":"instituto de ciencias de la comunicacion charles chaplin",
         "id":132,
         "slug":"instituto-de-ciencias-de-la-comunicacion-charles-chaplin",
         "name":"INSTITUTO DE CIENCIAS DE LA COMUNICACI\u00d3N - CHARLES CHAPLIN"
      },
      {
         "search":"instituto peruano aleman ipal",
         "id":107,
         "slug":"instituto-peruano-aleman-ipal",
         "name":"INSTITUTO PERUANO ALEM\u00c1N - IPAL"
      },
      {
         "search":"instituto peruano de arte y diseno ipad",
         "id":133,
         "slug":"instituto-peruano-de-arte-y-diseno-ipad",
         "name":"INSTITUTO PERUANO DE ARTE Y DISE\u00d1O - IPAD"
      },
      {
         "search":"instituto superior poussin",
         "id":256,
         "slug":"instituto-superior-poussin",
         "name":"INSTITUTO SUPERIOR POUSSIN"
      },
      {
         "search":"instituto discovery",
         "id":202,
         "slug":"instituto-discovery",
         "name":"INSTITUTO DISCOVERY"
      },
      {
         "search":"instituto sise",
         "id":27,
         "slug":"instituto-sise",
         "name":"INSTITUTO SISE"
      },
      {
         "search":"instituto peruano de accion empresarial ipae",
         "id":13,
         "slug":"instituto-peruano-de-accion-empresarial-ipae",
         "name":"INSTITUTO PERUANO DE ACCI\u00d3N EMPRESARIAL - IPAE"
      },
      {
         "search":"instituto cesca",
         "id":17,
         "slug":"instituto-cesca",
         "name":"INSTITUTO CESCA"
      },
      {
         "search":"instituto cibertec",
         "id":20,
         "slug":"instituto-cibertec",
         "name":"INSTITUTO CIBERTEC"
      },
      {
         "search":"instituto tecsup",
         "id":22,
         "slug":"instituto-tecsup",
         "name":"INSTITUTO TECSUP"
      },
      {
         "search":"instituto sise",
         "id":27,
         "slug":"instituto-sise",
         "name":"INSTITUTO SISE"
      },
      {
         "search":"instituto de formacion bancaria ifb",
         "id":33,
         "slug":"instituto-de-formacion-bancaria-ifb",
         "name":"INSTITUTO DE FORMACI\u00d3N BANCARIA - IFB"
      },
      {
         "search":"instituto san ignacio de loyola isil",
         "id":36,
         "slug":"instituto-san-ignacio-de-loyola-isil",
         "name":"INSTITUTO SAN IGNACIO DE LOYOLA - ISIL"
      },
      {
         "search":"instituto eiger escuela internacional de gerencia",
         "id":38,
         "slug":"instituto-eiger-escuela-internacional-de-gerencia",
         "name":"INSTITUTO EIGER - ESCUELA INTERNACIONAL DE GERENCIA"
      },
      {
         "search":"instituto abaco",
         "id":39,
         "slug":"instituto-abaco",
         "name":"INSTITUTO ABACO"
      },
      {
         "search":"instituto de comercio exterior adex",
         "id":42,
         "slug":"instituto-de-comercio-exterior-adex",
         "name":"INSTITUTO DE COMERCIO EXTERIOR - ADEX"
      },
      {
         "search":"instituto cimas",
         "id":44,
         "slug":"instituto-cimas",
         "name":"INSTITUTO CIMAS"
      },
      {
         "search":"instituto computronic",
         "id":48,
         "slug":"instituto-computronic",
         "name":"INSTITUTO COMPUTRONIC"
      },
      {
         "search":"instituto cepea",
         "id":49,
         "slug":"instituto-cepea",
         "name":"INSTITUTO CEPEA"
      },
      {
         "search":"instituto cecitel",
         "id":50,
         "slug":"instituto-cecitel",
         "name":"INSTITUTO CECITEL"
      },
      {
         "search":"instituto nacional de investigacion y capacitacion de telecomunicaciones inictel",
         "id":57,
         "slug":"instituto-nacional-de-investigacion-y-capacitacion-de-telecomunicaciones-inictel",
         "name":"INSTITUTO NACIONAL DE INVESTIGACI\u00d3N Y CAPACITACI\u00d3N DE TELECOMUNICACIONES - INICTEL"
      },
      {
         "search":"universidad privada norbert wiener u wiener",
         "id":83,
         "slug":"universidad-privada-norbert-wiener-u-wiener",
         "name":"UNIVERSIDAD PRIVADA NORBERT WIENER - U WIENER"
      },
      {
         "search":"instituto norbet wiener",
         "id":91,
         "slug":"instituto-norbet-wiener",
         "name":"INSTITUTO NORBET WIENER"
      },
      {
         "search":"instituto peruano de marketing ipm",
         "id":58,
         "slug":"instituto-peruano-de-marketing-ipm",
         "name":"INSTITUTO PERUANO DE MARKETING - IPM"
      },
      {
         "search":"instituto peruano de publicidad ipp",
         "id":60,
         "slug":"instituto-peruano-de-publicidad-ipp",
         "name":"INSTITUTO PERUANO DE PUBLICIDAD - IPP"
      },
      {
         "search":"instituto ela",
         "id":61,
         "slug":"instituto-ela",
         "name":"INSTITUTO ELA"
      },
      {
         "search":"instituto columbia",
         "id":63,
         "slug":"instituto-columbia",
         "name":"INSTITUTO COLUMBIA"
      },
      {
         "search":"instituto del sur",
         "id":75,
         "slug":"instituto-del-sur",
         "name":"INSTITUTO DEL SUR"
      },
      {
         "search":"instituto de cocina y gastronomia gastrotur",
         "id":169,
         "slug":"instituto-de-cocina-y-gastronomia-gastrotur",
         "name":"INSTITUTO DE COCINA Y GASTRONOM\u00cdA - GASTROTUR"
      },
      {
         "search":"instituto matrix",
         "id":267,
         "slug":"instituto-matrix",
         "name":"INSTITUTO MATRIX"
      },
      {
         "search":"instituto expro",
         "id":199,
         "slug":"instituto-expro",
         "name":"INSTITUTO EXPRO"
      },
      {
         "search":"british academy",
         "id":54,
         "slug":"british-academy",
         "name":"BRITISH ACADEMY"
      },
      {
         "search":"britanico",
         "id":98,
         "slug":"britanico",
         "name":"BRIT\u00c1NICO"
      },
      {
         "search":"centro de estudios de aviacion profesional avia",
         "id":92,
         "slug":"centro-de-estudios-de-aviacion-profesional-avia",
         "name":"CENTRO DE ESTUDIOS DE AVIACI\u00d3N PROFESIONAL - AVIA"
      },
      {
         "search":"academia de secretariado margarita cabrera manzur",
         "id":76,
         "slug":"academia-de-secretariado-margarita-cabrera-manzur",
         "name":"ACADEMIA DE SECRETARIADO MARGARITA CABRERA MANZUR"
      },
      {
         "search":"instituto cecitel",
         "id":50,
         "slug":"instituto-cecitel",
         "name":"INSTITUTO CECITEL"
      },
      {
         "search":"centro peruano de estudios bancarios cepeban",
         "id":34,
         "slug":"centro-peruano-de-estudios-bancarios-cepeban",
         "name":"CENTRO PERUANO DE  ESTUDIOS BANCARIOS - CEPEBAN"
      },
      {
         "search":"centro de formacion en turismo cenfotur",
         "id":37,
         "slug":"centro-de-formacion-en-turismo-cenfotur",
         "name":"CENTRO DE FORMACI\u00d3N EN TURISMO - CENFOTUR"
      },
      {
         "search":"centro de estudios de aviacion profesional avia",
         "id":92,
         "slug":"centro-de-estudios-de-aviacion-profesional-avia",
         "name":"CENTRO DE ESTUDIOS DE AVIACI\u00d3N PROFESIONAL - AVIA"
      },
      {
         "search":"centrum centro de negocios pucp",
         "id":97,
         "slug":"centrum-centro-de-negocios-pucp",
         "name":"CENTRUM - CENTRO DE NEGOCIOS PUCP"
      },
      {
         "search":"cetpro centro internacional latino cil",
         "id":119,
         "slug":"cetpro-centro-internacional-latino-cil",
         "name":"CETPRO CENTRO INTERNACIONAL LATINO -CIL"
      },
      {
         "search":"centro de extension y proyeccion social ceps uni",
         "id":185,
         "slug":"centro-de-extension-y-proyeccion-social-ceps-uni",
         "name":"CENTRO DE EXTENSI\u00d3N Y PROYECCI\u00d3N SOCIAL - CEPS UNI"
      },
      {
         "search":"centro tecnologico minero cetemin",
         "id":224,
         "slug":"centro-tecnologico-minero-cetemin",
         "name":"CENTRO TECNOL\u00d3GICO MINERO - CETEMIN"
      },
      {
         "search":"instituto intec centro de capacitacion tecnica",
         "id":292,
         "slug":"instituto-intec-centro-de-capacitacion-tecnica",
         "name":"INSTITUTO INTEC - CENTRO DE CAPACITACI\u00d3N TECNICA"
      },
      {
         "search":"centro de altos estudios de la moda ceam",
         "id":313,
         "slug":"centro-de-altos-estudios-de-la-moda-ceam",
         "name":"CENTRO DE ALTOS ESTUDIOS DE  LA MODA - CEAM"
      },
      {
         "search":"centro de la imagen",
         "id":314,
         "slug":"centro-de-la-imagen",
         "name":"CENTRO DE LA IMAGEN"
      },
      {
         "search":"centro cultural pucp",
         "id":339,
         "slug":"centro-cultural-pucp",
         "name":"CENTRO CULTURAL PUCP"
      },
      {
         "search":"centro de altos estudios nacionales caen",
         "id":349,
         "slug":"centro-de-altos-estudios-nacionales-caen",
         "name":"CENTRO DE ALTOS ESTUDIOS NACIONALES - CAEN"
      },
      {
         "search":"centro de informatica unmsm",
         "id":390,
         "slug":"centro-de-informatica-unmsm",
         "name":"CENTRO DE INFORM\u00c1TICA UNMSM"
      },
      {
         "search":"universidad catolica san pablo ucsp",
         "id":90,
         "slug":"universidad-catolica-san-pablo-ucsp",
         "name":"UNIVERSIDAD CAT\u00d3LICA SAN PABLO - UCSP"
      },
      {
         "search":"instituto san pablo",
         "id":242,
         "slug":"instituto-san-pablo",
         "name":"INSTITUTO SAN PABLO"
      },
      {
         "search":"instituto de diseno de moda chio lecca",
         "id":222,
         "slug":"instituto-de-diseno-de-moda-chio-lecca",
         "name":"INSTITUTO DE DISE\u00d1O DE MODA - CHIO LECCA"
      },
      {
         "search":"universidad catolica sedes sapientiae ucss",
         "id":55,
         "slug":"universidad-catolica-sedes-sapientiae-ucss",
         "name":"UNIVERSIDAD CAT\u00d3LICA SEDES SAPIENTIAE - UCSS"
      },
      {
         "search":"cetpro maria auxiliadora",
         "id":268,
         "slug":"cetpro-maria-auxiliadora",
         "name":"CETPRO MARIA AUXILIADORA"
      },
      {
         "search":"universidad catolica de santa maria ucsm",
         "id":46,
         "slug":"universidad-catolica-de-santa-maria-ucsm",
         "name":"UNIVERSIDAD CAT\u00d3LICA DE SANTA MARIA - UCSM"
      },
      {
         "search":"istp jose carlos mariategui",
         "id":233,
         "slug":"istp-jose-carlos-mariategui",
         "name":"ISTP JOS\u00c9 CARLOS MARIATEGUI"
      },
      {
         "search":"cetpro maria auxiliadora",
         "id":268,
         "slug":"cetpro-maria-auxiliadora",
         "name":"CETPRO MARIA AUXILIADORA"
      },
      {
         "search":"universidad cristiana del peru maria inmaculada",
         "id":300,
         "slug":"universidad-cristiana-del-peru-maria-inmaculada",
         "name":"UNIVERSIDAD CRISTIANA DEL PER\u00da MARIA INMACULADA"
      },
      {
         "search":"colegio de contadores publicos",
         "id":197,
         "slug":"colegio-de-contadores-publicos",
         "name":"COLEGIO DE CONTADORES PUBLICOS"
      },
      {
         "search":"colegio de ingenieros del peru",
         "id":215,
         "slug":"colegio-de-ingenieros-del-peru",
         "name":"COLEGIO DE INGENIEROS DEL PERU"
      },
      {
         "search":"instituto data systems ingenieros",
         "id":299,
         "slug":"instituto-data-systems-ingenieros",
         "name":"INSTITUTO DATA SYSTEMS INGENIEROS"
      },
      {
         "search":"conservatorio nacional de musica",
         "id":356,
         "slug":"conservatorio-nacional-de-musica",
         "name":"CONSERVATORIO NACIONAL DE M\u00daSICA"
      },
      {
         "search":"escuela nacional de bellas artes del peru",
         "id":340,
         "slug":"escuela-nacional-de-bellas-artes-del-peru",
         "name":"ESCUELA NACIONAL DE BELLAS ARTES DEL PER\u00da"
      },
      {
         "search":"instituto superior de economia local isel",
         "id":81,
         "slug":"instituto-superior-de-economia-local-isel",
         "name":"INSTITUTO SUPERIOR DE ECONOM\u00cdA LOCAL - ISEL"
      },
      {
         "search":"escuela superior de informatica de la empresa informatica iicer",
         "id":109,
         "slug":"escuela-superior-de-informatica-de-la-empresa-informatica-iicer",
         "name":"ESCUELA SUPERIOR DE INFORM\u00c1TICA DE LA EMPRESA INFORM\u00c1TICA - IICER"
      },
      {
         "search":"instituto superior tecnologico publico antenor orrego espinoza",
         "id":112,
         "slug":"instituto-superior-tecnologico-publico-antenor-orrego-espinoza",
         "name":"INSTITUTO SUPERIOR TECNOL\u00d3GICO P\u00daBLICO ANTENOR ORREGO ESPINOZA"
      },
      {
         "search":"escuela superior de periodismo jaime bausate y meza",
         "id":124,
         "slug":"escuela-superior-de-periodismo-jaime-bausate-y-meza",
         "name":"ESCUELA SUPERIOR DE PERIODISMO JAIME BAUSATE Y MEZA"
      },
      {
         "search":"instituto superior tecnologico san ignacio de monterrico sidem",
         "id":146,
         "slug":"instituto-superior-tecnologico-san-ignacio-de-monterrico-sidem",
         "name":"INSTITUTO SUPERIOR TECNOL\u00d3GICO SAN IGNACIO DE MONTERRICO - SIDEM"
      },
      {
         "search":"instituto pedagogico nacional monterrico ipnm",
         "id":156,
         "slug":"instituto-pedagogico-nacional-monterrico-ipnm",
         "name":"INSTITUTO PEDAG\u00d3GICO NACIONAL MONTERRICO - IPNM"
      },
      {
         "search":"instituto superior leonardo da vinci",
         "id":152,
         "slug":"instituto-superior-leonardo-da-vinci",
         "name":"INSTITUTO SUPERIOR LEONARDO DA VINCI"
      },
      {
         "search":"istp carlos salazar romero",
         "id":203,
         "slug":"istp-carlos-salazar-romero",
         "name":"ISTP CARLOS SALAZAR ROMERO"
      },
      {
         "search":"instituto carlos cueto fernandini",
         "id":137,
         "slug":"instituto-carlos-cueto-fernandini",
         "name":"INSTITUTO CARLOS CUETO FERNANDINI"
      },
      {
         "search":"instituto de educacion superior datatec",
         "id":159,
         "slug":"instituto-de-educacion-superior-datatec",
         "name":"INSTITUTO DE EDUCACI\u00d3N SUPERIOR DATATEC"
      },
      {
         "search":"universidad privada san juan bautista upsjb",
         "id":59,
         "slug":"universidad-privada-san-juan-bautista-upsjb",
         "name":"UNIVERSIDAD PRIVADA SAN JUAN BAUTISTA - UPSJB"
      },
      {
         "search":"universidad privada juan mejia baca umb",
         "id":358,
         "slug":"universidad-privada-juan-mejia-baca-umb",
         "name":"UNIVERSIDAD PRIVADA JUAN MEJ\u00cdA BACA - UMB"
      },
      {
         "search":"instituto juan mejia baca",
         "id":359,
         "slug":"instituto-juan-mejia-baca",
         "name":"INSTITUTO JUAN MEJIA BACA"
      },
      {
         "search":"instituto superior tecnologico publico jose pardo",
         "id":160,
         "slug":"instituto-superior-tecnologico-publico-jose-pardo",
         "name":"INSTITUTO SUPERIOR TECNOLOGICO PUBLICO JOSE PARDO"
      },
      {
         "search":"instituto superior pedro p diaz",
         "id":171,
         "slug":"instituto-superior-pedro-p-diaz",
         "name":"INSTITUTO SUPERIOR PEDRO P. D\u00cdAZ"
      },
      {
         "search":"instituto de educacion superior peruano canadiense",
         "id":172,
         "slug":"instituto-de-educacion-superior-peruano-canadiense",
         "name":"INSTITUTO DE EDUCACI\u00d3N SUPERIOR PERUANO - CANADIENSE"
      },
      {
         "search":"insituto superior tecnologico datapro",
         "id":177,
         "slug":"insituto-superior-tecnologico-datapro",
         "name":"INSITUTO SUPERIOR TECNOL\u00d3GICO DATAPRO"
      },
      {
         "search":"instituto superior tecnologico publico simon bolivar",
         "id":179,
         "slug":"instituto-superior-tecnologico-publico-simon-bolivar",
         "name":"INSTITUTO SUPERIOR TECNOLOGICO PUBLICO SIMON BOLIVAR"
      },
      {
         "search":"instituto superior tecnologico naval citen",
         "id":180,
         "slug":"instituto-superior-tecnologico-naval-citen",
         "name":"INSTITUTO SUPERIOR TECNOL\u00d3GICO NAVAL CITEN"
      },
      {
         "search":"instituto superior publico honorio delgado espinoza",
         "id":194,
         "slug":"instituto-superior-publico-honorio-delgado-espinoza",
         "name":"INSTITUTO SUPERIOR PUBLICO HONORIO DELGADO ESPINOZA"
      },
      {
         "search":"instituto de educacion superior tecnnologico privado amauta",
         "id":198,
         "slug":"instituto-de-educacion-superior-tecnnologico-privado-amauta",
         "name":"INSTITUTO DE EDUCACI\u00d3N SUPERIOR TECNNOL\u00d3GICO PRIVADO AMAUTA"
      },
      {
         "search":"instituto superior salesiano",
         "id":214,
         "slug":"instituto-superior-salesiano",
         "name":"INSTITUTO SUPERIOR SALESIANO"
      },
      {
         "search":"instituto superior tecnologico publico julio cesar tello",
         "id":218,
         "slug":"instituto-superior-tecnologico-publico-julio-cesar-tello",
         "name":"INSTITUTO SUPERIOR TECNOL\u00d3GICO P\u00daBLICO JULIO C\u00c9SAR TELLO"
      },
      {
         "search":"universidad inca garcilaso de la vega uigv",
         "id":8,
         "slug":"universidad-inca-garcilaso-de-la-vega-uigv",
         "name":"UNIVERSIDAD INCA GARCILASO DE LA VEGA - UIGV"
      },
      {
         "search":"incae business school",
         "id":188,
         "slug":"incae-business-school",
         "name":"INCAE BUSINESS SCHOOL"
      },
      {
         "search":"euroidiomas",
         "id":162,
         "slug":"euroidiomas",
         "name":"EUROIDIOMAS"
      },
      {
         "search":"pontificia universidad catolica del peru pucp",
         "id":12,
         "slug":"pontificia-universidad-catolica-del-peru-pucp",
         "name":"PONTIFICIA UNIVERSIDAD CAT\u00d3LICA DEL PER\u00da - PUCP"
      },
      {
         "search":"pontificia universidad catolica de chile",
         "id":71,
         "slug":"pontificia-universidad-catolica-de-chile",
         "name":"PONTIFICIA UNIVERSIDAD CAT\u00d3LICA DE CHILE"
      },
      {
         "search":"pontificia universidad javeriana colombia",
         "id":369,
         "slug":"pontificia-universidad-javeriana-colombia",
         "name":"PONTIFICIA UNIVERSIDAD JAVERIANA - COLOMBIA"
      },
      {
         "search":"instituto superior tecnologico esae",
         "id":219,
         "slug":"instituto-superior-tecnologico-esae",
         "name":"INSTITUTO SUPERIOR TECNOLOGICO ESAE"
      },
      {
         "search":"escuela tecnologica superior etsunp",
         "id":220,
         "slug":"escuela-tecnologica-superior-etsunp",
         "name":"ESCUELA TECNOL\u00d3GICA SUPERIOR ETSUNP"
      },
      {
         "search":"instituto superior tecnologico luis negreiros vega",
         "id":223,
         "slug":"instituto-superior-tecnologico-luis-negreiros-vega",
         "name":"INSTITUTO SUPERIOR TECNOLOGICO LUIS NEGREIROS VEGA"
      },
      {
         "search":"universidad nacional de san cristobal de huamanga unsch",
         "id":144,
         "slug":"universidad-nacional-de-san-cristobal-de-huamanga-unsch",
         "name":"UNIVERSIDAD NACIONAL DE SAN CRIST\u00d3BAL DE HUAMANGA - UNSCH"
      },
      {
         "search":"universidad nacional mayor de san marcos unmsm",
         "id":6,
         "slug":"universidad-nacional-mayor-de-san-marcos-unmsm",
         "name":"UNIVERSIDAD NACIONAL MAYOR DE SAN MARCOS - UNMSM"
      },
      {
         "search":"universidad nacional del callao unac",
         "id":9,
         "slug":"universidad-nacional-del-callao-unac",
         "name":"UNIVERSIDAD NACIONAL DEL CALLAO - UNAC"
      },
      {
         "search":"universidad nacional federico villarreal unfv",
         "id":10,
         "slug":"universidad-nacional-federico-villarreal-unfv",
         "name":"UNIVERSIDAD NACIONAL FEDERICO VILLARREAL - UNFV"
      },
      {
         "search":"universidad nacional de ingenieria uni",
         "id":11,
         "slug":"universidad-nacional-de-ingenieria-uni",
         "name":"UNIVERSIDAD NACIONAL DE INGENIER\u00cdA - UNI"
      },
      {
         "search":"universidad nacional de piura unp",
         "id":19,
         "slug":"universidad-nacional-de-piura-unp",
         "name":"UNIVERSIDAD  NACIONAL DE PIURA - UNP"
      },
      {
         "search":"universidad nacional agraria la molina la molina",
         "id":29,
         "slug":"universidad-nacional-agraria-la-molina-la-molina",
         "name":"UNIVERSIDAD NACIONAL AGRARIA LA MOLINA - LA MOLINA"
      },
      {
         "search":"universidad nacional pedro ruiz gallo unprg",
         "id":30,
         "slug":"universidad-nacional-pedro-ruiz-gallo-unprg",
         "name":"UNIVERSIDAD NACIONAL PEDRO RUIZ GALLO - UNPRG"
      },
      {
         "search":"instituto peruano de chefs",
         "id":293,
         "slug":"instituto-peruano-de-chefs",
         "name":"INSTITUTO PERUANO DE CHEFS"
      },
      {
         "search":"universidad nacional del centro del peru uncp",
         "id":45,
         "slug":"universidad-nacional-del-centro-del-peru-uncp",
         "name":"UNIVERSIDAD NACIONAL DEL CENTRO DEL PER\u00da - UNCP"
      },
      {
         "search":"universidad nacional de cajamarca unc",
         "id":51,
         "slug":"universidad-nacional-de-cajamarca-unc",
         "name":"UNIVERSIDAD NACIONAL DE CAJAMARCA - UNC"
      },
      {
         "search":"universidad nacional san luis gonzaga de ica unica",
         "id":68,
         "slug":"universidad-nacional-san-luis-gonzaga-de-ica-unica",
         "name":"UNIVERSIDAD NACIONAL SAN LUIS GONZAGA DE ICA - UNICA"
      },
      {
         "search":"universidad nacional del altiplano puno unap",
         "id":72,
         "slug":"universidad-nacional-del-altiplano-puno-unap",
         "name":"UNIVERSIDAD NACIONAL DEL ALTIPLANO PUNO - UNAP"
      },
      {
         "search":"universidad nacional del santa uns",
         "id":79,
         "slug":"universidad-nacional-del-santa-uns",
         "name":"UNIVERSIDAD NACIONAL DEL SANTA - UNS"
      },
      {
         "search":"universidad nacional daniel alcides carrion undac",
         "id":84,
         "slug":"universidad-nacional-daniel-alcides-carrion-undac",
         "name":"UNIVERSIDAD NACIONAL DANIEL ALCIDES CARRI\u00d3N - UNDAC"
      },
      {
         "search":"universidad nacional hermilio valdizan unheval",
         "id":86,
         "slug":"universidad-nacional-hermilio-valdizan-unheval",
         "name":"UNIVERSIDAD NACIONAL HERMILIO VALDIZAN - UNHEVAL"
      },
      {
         "search":"universidad antonio ruiz de montoya uarm",
         "id":230,
         "slug":"universidad-antonio-ruiz-de-montoya-uarm",
         "name":"UNIVERSIDAD ANTONIO RUIZ DE MONTOYA - UARM"
      },
      {
         "search":"universidad nacional agraria de la selva unas",
         "id":100,
         "slug":"universidad-nacional-agraria-de-la-selva-unas",
         "name":"UNIVERSIDAD NACIONAL AGRARIA DE LA SELVA - UNAS"
      },
      {
         "search":"universidad nacional jorge basadre grohmann unjbg",
         "id":102,
         "slug":"universidad-nacional-jorge-basadre-grohmann-unjbg",
         "name":"UNIVERSIDAD NACIONAL JORGE BASADRE GROHMANN - UNJBG"
      },
      {
         "search":"universidad nacional santiago antunez de mayolo unasam",
         "id":103,
         "slug":"universidad-nacional-santiago-antunez-de-mayolo-unasam",
         "name":"UNIVERSIDAD NACIONAL SANTIAGO ANT\u00daNEZ DE MAYOLO - UNASAM"
      },
      {
         "search":"universidad nacional de tumbes unt",
         "id":104,
         "slug":"universidad-nacional-de-tumbes-unt",
         "name":"UNIVERSIDAD NACIONAL DE TUMBES - UNT"
      },
      {
         "search":"universidad nacional de ucayali unu",
         "id":111,
         "slug":"universidad-nacional-de-ucayali-unu",
         "name":"UNIVERSIDAD NACIONAL DE UCAYALI - UNU"
      },
      {
         "search":"universidad nacional de huancavelica unh",
         "id":163,
         "slug":"universidad-nacional-de-huancavelica-unh",
         "name":"UNIVERSIDAD NACIONAL DE HUANCAVELICA - UNH"
      },
      {
         "search":"universidad nacional de educacion enrique guzman y valle la cantuta",
         "id":122,
         "slug":"universidad-nacional-de-educacion-enrique-guzman-y-valle-la-cantuta",
         "name":"UNIVERSIDAD NACIONAL DE EDUCACI\u00d3N ENRIQUE GUZM\u00c1N Y VALLE - LA CANTUTA"
      },
      {
         "search":"instituto superior tecnologico san pedro",
         "id":228,
         "slug":"instituto-superior-tecnologico-san-pedro",
         "name":"INSTITUTO SUPERIOR TECNOLOGICO SAN PEDRO"
      },
      {
         "search":"instituto pedro ruiz gallo",
         "id":347,
         "slug":"instituto-pedro-ruiz-gallo",
         "name":"INSTITUTO PEDRO RUIZ GALLO"
      },
      {
         "search":"universidad de san martin de porres usmp",
         "id":7,
         "slug":"universidad-de-san-martin-de-porres-usmp",
         "name":"UNIVERSIDAD DE SAN MARTIN DE PORRES - USMP"
      },
      {
         "search":"instituto san martin del peru",
         "id":141,
         "slug":"instituto-san-martin-del-peru",
         "name":"INSTITUTO SAN MARTIN DEL PERU"
      },
      {
         "search":"universidad nacional de san martin tarapoto",
         "id":381,
         "slug":"universidad-nacional-de-san-martin-tarapoto",
         "name":"UNIVERSIDAD NACIONAL DE SAN MARTIN - TARAPOTO"
      },
      {
         "search":"universidad particular de chiclayo udch",
         "id":70,
         "slug":"universidad-particular-de-chiclayo-udch",
         "name":"UNIVERSIDAD PARTICULAR DE CHICLAYO - UDCH"
      },
      {
         "search":"universidad nacional jose faustino sanchez carrion unjfsc",
         "id":125,
         "slug":"universidad-nacional-jose-faustino-sanchez-carrion-unjfsc",
         "name":"UNIVERSIDAD NACIONAL JOSE FAUSTINO SANCHEZ CARRI\u00d3N - UNJFSC"
      },
      {
         "search":"instituto superior de tecnica aduanera aduatel",
         "id":232,
         "slug":"instituto-superior-de-tecnica-aduanera-aduatel",
         "name":"INSTITUTO SUPERIOR DE T\u00c9CNICA ADUANERA - ADUATEL"
      },
      {
         "search":"tecnologico de monterrey",
         "id":240,
         "slug":"tecnologico-de-monterrey",
         "name":"TECNOL\u00d3GICO DE MONTERREY"
      },
      {
         "search":"universidad nacional tecnologica del cono sur untecs",
         "id":253,
         "slug":"universidad-nacional-tecnologica-del-cono-sur-untecs",
         "name":"UNIVERSIDAD NACIONAL TECNOL\u00d3GICA DEL CONO SUR - UNTECS"
      },
      {
         "search":"instituto superior tecnologico manuel arevalo caceres",
         "id":262,
         "slug":"instituto-superior-tecnologico-manuel-arevalo-caceres",
         "name":"INSTITUTO SUPERIOR TECNOL\u00d3GICO MANUEL AR\u00c9VALO C\u00c1CERES"
      },
      {
         "search":"universidad privada de tacna upt",
         "id":62,
         "slug":"universidad-privada-de-tacna-upt",
         "name":"UNIVERSIDAD PRIVADA DE TACNA - UPT"
      },
      {
         "search":"instituto superior tecnologico republica federal de alemania",
         "id":265,
         "slug":"instituto-superior-tecnologico-republica-federal-de-alemania",
         "name":"INSTITUTO SUPERIOR TECNOL\u00d3GICO REP\u00daBLICA FEDERAL DE ALEMANIA"
      },
      {
         "search":"instituto superior tecnologico de comercio exterior istecex",
         "id":244,
         "slug":"instituto-superior-tecnologico-de-comercio-exterior-istecex",
         "name":"INSTITUTO SUPERIOR TECNOL\u00d3GICO DE COMERCIO EXTERIOR - ISTECEX"
      },
      {
         "search":"centro de idiomas virgen de las mercedes civime",
         "id":255,
         "slug":"centro-de-idiomas-virgen-de-las-mercedes-civime",
         "name":"CENTRO DE IDIOMAS VIRGEN DE LAS MERCEDES - CIVIME"
      },
      {
         "search":"universidad catolica santo toribio de mogrovejo usat",
         "id":88,
         "slug":"universidad-catolica-santo-toribio-de-mogrovejo-usat",
         "name":"UNIVERSIDAD CAT\u00d3LICA SANTO TORIBIO DE MOGROVEJO - USAT"
      },
      {
         "search":"instituto de los andes",
         "id":130,
         "slug":"instituto-de-los-andes",
         "name":"INSTITUTO DE LOS ANDES"
      },
      {
         "search":"universidad tecnologica de los andes utea",
         "id":191,
         "slug":"universidad-tecnologica-de-los-andes-utea",
         "name":"UNIVERSIDAD TECNOL\u00d3GICA DE LOS ANDES - UTEA"
      },
      {
         "search":"instituto de publicidad leo design",
         "id":193,
         "slug":"instituto-de-publicidad-leo-design",
         "name":"INSTITUTO DE PUBLICIDAD LEO DESIGN"
      },
      {
         "search":"instituto de publicidad leo design 1",
         "id":259,
         "slug":"instituto-de-publicidad-leo-design-1",
         "name":"INSTITUTO DE PUBLICIDAD LEO DESIGN"
      },
      {
         "search":"ceop montessori escuela de comercio exterior y aduanas",
         "id":318,
         "slug":"ceop-montessori-escuela-de-comercio-exterior-y-aduanas",
         "name":"CEOP MONTESSORI - ESCUELA DE COMERCIO EXTERIOR Y ADUANAS"
      },
      {
         "search":"instituto de educacion superior maria montessori",
         "id":319,
         "slug":"instituto-de-educacion-superior-maria-montessori",
         "name":"INSTITUTO DE EDUCACI\u00d3N SUPERIOR MAR\u00cdA MONTESSORI"
      }
   ]
}